-- Merging decision tree log ---
manifest
ADDED from /home/malz/Downloads/DARPADemo1/dARPADemo/src/main/AndroidManifest.xml:2:1-38:12
	package
		ADDED from /home/malz/Downloads/DARPADemo1/dARPADemo/src/main/AndroidManifest.xml:3:5-35
		INJECTED from /home/malz/Downloads/DARPADemo1/dARPADemo/src/main/AndroidManifest.xml
		INJECTED from /home/malz/Downloads/DARPADemo1/dARPADemo/src/main/AndroidManifest.xml
	android:versionName
		ADDED from /home/malz/Downloads/DARPADemo1/dARPADemo/src/main/AndroidManifest.xml:5:5-30
		INJECTED from /home/malz/Downloads/DARPADemo1/dARPADemo/src/main/AndroidManifest.xml
		INJECTED from /home/malz/Downloads/DARPADemo1/dARPADemo/src/main/AndroidManifest.xml
	android:versionCode
		ADDED from /home/malz/Downloads/DARPADemo1/dARPADemo/src/main/AndroidManifest.xml:4:5-28
		INJECTED from /home/malz/Downloads/DARPADemo1/dARPADemo/src/main/AndroidManifest.xml
		INJECTED from /home/malz/Downloads/DARPADemo1/dARPADemo/src/main/AndroidManifest.xml
	xmlns:android
		ADDED from /home/malz/Downloads/DARPADemo1/dARPADemo/src/main/AndroidManifest.xml:2:11-69
uses-permission#android.permission.INTERNET
ADDED from /home/malz/Downloads/DARPADemo1/dARPADemo/src/main/AndroidManifest.xml:6:5-67
	android:name
		ADDED from /home/malz/Downloads/DARPADemo1/dARPADemo/src/main/AndroidManifest.xml:6:22-64
uses-permission#android.permission.SYSTEM_ALERT_WINDOW
ADDED from /home/malz/Downloads/DARPADemo1/dARPADemo/src/main/AndroidManifest.xml:7:5-78
	android:name
		ADDED from /home/malz/Downloads/DARPADemo1/dARPADemo/src/main/AndroidManifest.xml:7:22-75
uses-permission#android.permission.GET_TASKS
ADDED from /home/malz/Downloads/DARPADemo1/dARPADemo/src/main/AndroidManifest.xml:8:5-68
	android:name
		ADDED from /home/malz/Downloads/DARPADemo1/dARPADemo/src/main/AndroidManifest.xml:8:22-65
uses-permission#android.permission.WRITE_EXTERNAL_STORAGE
ADDED from /home/malz/Downloads/DARPADemo1/dARPADemo/src/main/AndroidManifest.xml:9:5-81
	android:name
		ADDED from /home/malz/Downloads/DARPADemo1/dARPADemo/src/main/AndroidManifest.xml:9:22-78
uses-permission#android.permission.STORAGE
ADDED from /home/malz/Downloads/DARPADemo1/dARPADemo/src/main/AndroidManifest.xml:10:5-66
	android:name
		ADDED from /home/malz/Downloads/DARPADemo1/dARPADemo/src/main/AndroidManifest.xml:10:22-63
uses-permission#android.permission.READ_EXTERNAL_STORAGE
ADDED from /home/malz/Downloads/DARPADemo1/dARPADemo/src/main/AndroidManifest.xml:11:5-80
	android:name
		ADDED from /home/malz/Downloads/DARPADemo1/dARPADemo/src/main/AndroidManifest.xml:11:22-77
uses-sdk
ADDED from /home/malz/Downloads/DARPADemo1/dARPADemo/src/main/AndroidManifest.xml:13:5-15:41
MERGED from [DARPADemo1:wekaAndroid:unspecified] /home/malz/Downloads/DARPADemo1/dARPADemo/build/intermediates/exploded-aar/DARPADemo1/wekaAndroid/unspecified/AndroidManifest.xml:7:5-9:40
	android:targetSdkVersion
		ADDED from /home/malz/Downloads/DARPADemo1/dARPADemo/src/main/AndroidManifest.xml:15:9-38
		INJECTED from /home/malz/Downloads/DARPADemo1/dARPADemo/src/main/AndroidManifest.xml
		INJECTED from /home/malz/Downloads/DARPADemo1/dARPADemo/src/main/AndroidManifest.xml
	android:minSdkVersion
		ADDED from /home/malz/Downloads/DARPADemo1/dARPADemo/src/main/AndroidManifest.xml:14:9-35
		INJECTED from /home/malz/Downloads/DARPADemo1/dARPADemo/src/main/AndroidManifest.xml
		INJECTED from /home/malz/Downloads/DARPADemo1/dARPADemo/src/main/AndroidManifest.xml
application
ADDED from /home/malz/Downloads/DARPADemo1/dARPADemo/src/main/AndroidManifest.xml:17:5-36:19
	android:label
		ADDED from /home/malz/Downloads/DARPADemo1/dARPADemo/src/main/AndroidManifest.xml:20:9-41
	android:allowBackup
		ADDED from /home/malz/Downloads/DARPADemo1/dARPADemo/src/main/AndroidManifest.xml:18:9-35
	android:icon
		ADDED from /home/malz/Downloads/DARPADemo1/dARPADemo/src/main/AndroidManifest.xml:19:9-45
	android:theme
		ADDED from /home/malz/Downloads/DARPADemo1/dARPADemo/src/main/AndroidManifest.xml:21:9-40
activity#com.Sensor.maininterface.MainActivity
ADDED from /home/malz/Downloads/DARPADemo1/dARPADemo/src/main/AndroidManifest.xml:22:9-33:20
	android:screenOrientation
		ADDED from /home/malz/Downloads/DARPADemo1/dARPADemo/src/main/AndroidManifest.xml:23:13-49
	android:label
		ADDED from /home/malz/Downloads/DARPADemo1/dARPADemo/src/main/AndroidManifest.xml:26:13-45
	android:configChanges
		ADDED from /home/malz/Downloads/DARPADemo1/dARPADemo/src/main/AndroidManifest.xml:24:13-63
	android:name
		ADDED from /home/malz/Downloads/DARPADemo1/dARPADemo/src/main/AndroidManifest.xml:25:13-65
intent-filter#android.intent.action.MAIN+android.intent.category.LAUNCHER
ADDED from /home/malz/Downloads/DARPADemo1/dARPADemo/src/main/AndroidManifest.xml:27:13-31:29
action#android.intent.action.MAIN
ADDED from /home/malz/Downloads/DARPADemo1/dARPADemo/src/main/AndroidManifest.xml:28:17-69
	android:name
		ADDED from /home/malz/Downloads/DARPADemo1/dARPADemo/src/main/AndroidManifest.xml:28:25-66
category#android.intent.category.LAUNCHER
ADDED from /home/malz/Downloads/DARPADemo1/dARPADemo/src/main/AndroidManifest.xml:30:17-77
	android:name
		ADDED from /home/malz/Downloads/DARPADemo1/dARPADemo/src/main/AndroidManifest.xml:30:27-74
service#com.Sensor.services.SensorsClass
ADDED from /home/malz/Downloads/DARPADemo1/dARPADemo/src/main/AndroidManifest.xml:34:9-77
	android:name
		ADDED from /home/malz/Downloads/DARPADemo1/dARPADemo/src/main/AndroidManifest.xml:34:18-65
service#com.Sensor.services.EEGFeatureService
ADDED from /home/malz/Downloads/DARPADemo1/dARPADemo/src/main/AndroidManifest.xml:35:9-81
	android:name
		ADDED from /home/malz/Downloads/DARPADemo1/dARPADemo/src/main/AndroidManifest.xml:35:18-70
activity#weka.weka.Weka
ADDED from [DARPADemo1:wekaAndroid:unspecified] /home/malz/Downloads/DARPADemo1/dARPADemo/build/intermediates/exploded-aar/DARPADemo1/wekaAndroid/unspecified/AndroidManifest.xml:11:5-19:16
	android:label
		ADDED from [DARPADemo1:wekaAndroid:unspecified] /home/malz/Downloads/DARPADemo1/dARPADemo/build/intermediates/exploded-aar/DARPADemo1/wekaAndroid/unspecified/AndroidManifest.xml:13:9-41
	android:name
		ADDED from [DARPADemo1:wekaAndroid:unspecified] /home/malz/Downloads/DARPADemo1/dARPADemo/build/intermediates/exploded-aar/DARPADemo1/wekaAndroid/unspecified/AndroidManifest.xml:12:9-38
